{ 
    "LOCALE_NAME": "en-us",
    "GENERAL": {
        "NAME": "Name",
        "EMAIL": "E-mail",
        "SUBJECT": "Subject",
        "YOUR_MESSAGE": "Your message...",
        "SEND": "Send Message",
        "COPYRIGHT": "Handmade by me © 2018.",
        "MORE": "More",
        "NOT_IMPLEMENTED": "Sorry! This was not implemented yet.",
        "CONTACT_THE_FOLLOWING_EMAIL": "Copy your message and contact the following email",
        "MY_NAME": "Emiliano Oliveira",
        "BACK": "Back",
        "HOME": "Home",
        "FROM": "From",
        "TO": "To",
        "ENGLISH": "English",
        "PORTUGUESE": "Portuguese"
    },
    "PAGES": {
        "HOME": {
            "GREETINGS": "Hi! I'm Emiliano & I build",
            "WHAT_I_BUILD": [
                "web apps.",
                "user interfaces.",
                "landing pages.",
                "mobile apps.",
                "desktop apps."
            ],
            "NAVBAR": {
                "RESUME": "resume",
                "LINKEDIN": "linkedin",
                "EMAIL": "e-mail",
                "REPOSITORIES": "repos"
            },
            "CALL_FOR_TOOLS_SECTION": "",
            "TOOLS_SECTION_TITLE": "What do I work with?",
            "CALL_FOR_CONTACT_01": "Talk to me.",
            "CALL_FOR_CONTACT_02": "Be sure that I'll respond!"
        },
        "RESUME": {
            "MY_RESUME": "My Resume",
            "DOWNLOAD_PDF": "Download PDF",
            "TIMELINE": "Timeline",
            "KNOWLEDGE": "Kownledge & Interests",
            "OTHER_INFORMATION": "Other Information",
            "EDUCATION_DESCRIPTIONS": [
                {
                    "COURSE_NAME": "Graduate Degree in Systems Analysis and Development",
                    "INSTITUTION": "Estácio de Sá University",
                    "START_YEAR": "2013",
                    "END_YEAR": "2017"
                }
            ],
            "NATIVE_PROFICIENCY": "Native",
            "FLUENT_PROFICIENCY": "Fluent",
            "EXPERIENCE_DESCRIPTIONS": [
                {
                    "JOB_TITLE":"Full-Stack Senior Engineer",
                    "COMPANY_NAME":"BTG Pactual",
                    "LOGO":"./imgs/btg-pactual.png",
                    "START_DATE":"04/2018",
                    "DESCRIPTION":"Here at BTG I work at an AML Project (Anti Money Laundering), using Angular 5+ and Flask(Python). This project has huge complexity, ingesting data from various sources and showing them in a clear and friendly manner to the end user. I also implemented a graph for the project, which is in the process of being converted to an internal product and will allow this really good data viewing tool to be used by other teams."
                },
                {
                    "JOB_TITLE": "Sr. Front-End Engineer",
                    "COMPANY_NAME": "Wooza",
                    "LOGO": "./imgs/wooza.png",
                    "START_DATE": "03/2017",
                    "END_DATE": "12/2017",
                    "DESCRIPTION": "At Wooza I was responsible for developing checkouts to facilitate the acquisition of telecom products in the Vivo (telecom company) team. I also had the opportunity to contribute on modernizing our products by helping to introduce Angular 4 and Typescript to our arsenal."
                },
                {
                    "JOB_TITLE": "Full-Stack Engineer",
                    "COMPANY_NAME": "Medicinow",
                    "LOGO": "./imgs/medicinow.png",
                    "START_DATE": "06/2016",
                    "END_DATE": "03/2017",
                    "DESCRIPTION": "At Medicinow I was responsible for the architecture of all our solutions as well as development. I had the opportunity to work with Ruby on Rails, Django, Tastypie, MySQL, Electron, AWS and usual front-end web technologies. Great results came out of this mix."
                },
                {
                    "JOB_TITLE":"Intern Developer",
                    "COMPANY_NAME":"Spinpo",
                    "LOGO":"./imgs/spinpo.png",
                    "START_DATE":"02/2016",
                    "END_DATE":"05/2016",
                    "DESCRIPTION":"Worked developing client-side applications, such as websites and mobile apps. To achieve our goals I’ve used ordinary web technologies and the Ionic Framework, allowing huge productivity."
                },
                {
                    "JOB_TITLE":"Scientific Initiation",
                    "COMPANY_NAME":"LNCC",
                    "LOGO":"./imgs/lncc.png",
                    "START_DATE":"05/2014",
                    "END_DATE":"05/2016",
                    "DESCRIPTION":"Worked with parallel and distributed high performance computing using the Erlang programming language as the main tool."
                }
            ],
            "TOOLS": {
                "LANGUAGES": [
                    {
                        "NAME":"Python",
                        "LOGO":"./imgs/python.icon.png"
                    },
                    {
                        "NAME":"CSharp",
                        "LOGO":"./imgs/csharp.icon.png"
                    },
                    {
                        "NAME":"Javascript (ES8)",
                        "LOGO":"./imgs/javascript.icon.png"
                    },
                    {
                        "NAME":"Typescript",
                        "LOGO":"./imgs/typescript.icon.png"
                    },
                    {
                        "NAME":"SASS",
                        "LOGO":"./imgs/sass.icon.png"
                    },
                    {
                        "NAME":"HTML",
                        "LOGO":"./imgs/html.icon.png"
                    },
                    {
                        "NAME":"XAML",
                        "LOGO":"./imgs/xaml.icon.png"
                    }
                ],
                "frontEnd":[
                    {
                        "NAME":"Angular 4",
                        "LOGO":"./imgs/angular4.icon.png"
                    },
                    {
                        "NAME":"React",
                        "LOGO":"./imgs/react.icon.png"
                    },
                    {
                        "NAME":"Angular Js",
                        "LOGO":"./imgs/angularjs.icon.png"
                    }
                ],
                "hibrid":[
                    {
                        "NAME":"Ionic",
                        "LOGO":"./imgs/ionic1.icon.png"
                    },
                    {
                        "NAME":"Ionic 3",
                        "LOGO":"./imgs/ionic3.icon.png"
                    },
                    {
                        "NAME":"React Native",
                        "LOGO":"./imgs/react.icon.png"
                    },
                    {
                        "NAME":"Xamarin",
                        "LOGO":"./imgs/xamarin.icon.png"
                    },
                    {
                        "NAME":"Electron",
                        "LOGO":"./imgs/electron.icon.png"
                    }
                ],
                "tasks":[
                    {
                        "NAME":"Gulp",
                        "LOGO":"./imgs/gulp.icon.png"
                    },
                    {
                        "NAME":"Webpack",
                        "LOGO":"./imgs/webpack.icon.png"
                    }
                ],
                "backEnd":[
                    {
                        "NAME":"NodeJs",
                        "LOGO":"./imgs/nodejs.icon.png"
                    },
                    {
                        "NAME":"Django",
                        "LOGO":"./imgs/django.icon.png"
                    },
                    {
                        "NAME":"WebApi",
                        "LOGO":"./imgs/dotnet.icon.png"
                    }
                ],
                "databases":[
                    {
                        "NAME":"MySQL",
                        "LOGO":"./imgs/mysql.icon.png"
                    }
                ],
                "versioning":[
                    {
                        "NAME":"Git",
                        "LOGO":"./imgs/git.icon.png"
                    },
                    {
                        "NAME":"Gitflow",
                        "LOGO":"./imgs/gitflow.icon.png"
                    }
                ]
            }
        }
    }
}
